
第一章：
	1.1	如何手工创建和编译QT项目。
	
	首先编写源代码。假设编写完hw.cpp
	其次用 qmake-qt4 or qmake创建工程文件 qmake-qt4还是qmake依赖当前的执行环境。保险的做法是qmake后输入ctrl+i。
		$qmake -project
		$ls  查看qmake生成的工程文件。
	用qmake来通过工程文件，生成makefile 文件。
		$qmake-qt4
	用make来执行MakeFile文件，完成编译。生成可执行文件。
	
	================================================================================
	1.2	使用qDebug 很容易获取标准输出流 need file QDebug
	eg:qDebug()<<"debug message\n";
	
	================================================================================
	QT的风格：	
		数据成员：m_前缀	m_Color, m_Width
		静态数据成员: s_前缀	s_ObjCount
	
	================================================================================
	QT的核心模块库：
		core
		gui
		xml
		sql
		phonon	用于播放媒体文件
		webkit	嵌入式的web浏览器。
		
		在qmake中配置这些库 
		QT += xml # to use xml moudle
		QT -= gui #not use Qwidgets
		
		
	
	================================================================================
	创建一个数字输入框，并获取输入的数字。
	
	int num = QInputDialog::getInt(0, "title:","Msg...", 1);
	
	static int getInt(QWidget *parent, const QString &title, const QString &label, int value = 0,
                      int minValue = -2147483647, int maxValue = 2147483647,
                      int step = 1, 
					  bool *ok = 0, //用于监控但是确定还是取消。
					  Qt::WindowFlags flags = 0);
    
	
	提示框
	int answer = QMessageBox::question(0,"title:","msg", QMessageBox::Yes|QMessageBox::No);
	answer获取 NO or Yes。
	
	QString 可以用arg() 来获取格式化的字符串。
	QString str = QString("Msg num:%1, name:%2\n").arg(3).arg("ssm");
	
	
	
	================================================================================
	
	
第六章：
	容器托管，可以当容器销毁的时候，删除其托管的对象。
	如果容器的元素是指针的话，可以使用qDeleteAll(container)来完成元素的删除。
	
	================================================================================
	
	
	================================================================================
	
	
	================================================================================
	
	
	================================================================================
	
	
	================================================================================
	
	
	================================================================================
	
	
	