---------------------------------xx的分割线------------------------------

1:java在构造方法中可以用super 来指定基类的构造方法。

而C++可以在构造方法定义的时候，用参数列表来指定父类构造方法。

 

---------------------------------xx的分割线------------------------------

2:java存在继承的重载。 而C++继承 的重载会覆盖没有重载的方法。

   

class A
{
public:
   virtual void HW(int i)
   {  
      cout<<__LINE__<<endl;
   }  
                            
   virtual void HW()
   {  
      cout<<__LINE__<<endl;
   }  
};
                            
class B:public A
{
public:
   virtual void HW()
   {  
      cout<<__LINE__<<endl;   //this method 会覆盖掉前面父类同名的所有方法。
   }  
};
                            
A a;
B b;
b.HW();//OK
b.HW(1);//error!
B类中的HW会覆盖掉父类所有的HW方法。但试图调用b.HW(1)的时候，因为B类没有该方法，调用失败！！
3: virtual只能在方法声明中使用。 和参数默认值一样，只使用在声明中！

4:通常会将析构方法用virtual修饰。这样在delete 父类指针的时候,能看情况调用子类的析构。

否则只会析构掉父类！！

---------------------------------xx的分割线------------------------------

5:static  如果需要在类中定义一个静态成员变量，则需要static 来声明，在类外完成初始化！

注意：static只是声明关键字，不能用于定义的时候使用

class A
{
private:
   static int count;    //声明一个静态成员变量
   A(){count++;}        //计数
};
         
int A::count=0;    //初始化，注意不要使用static关键字

---------------------------------xx的分割线-----------------------------
6:输出控制：域宽和填充字符。
需要头文件 iomanip
std::setw(int i)
std::setfill(char c)
注意它们的设置，只对后面的一个输出内容有效。
cout<<std::setw(5)<<std::setfill('0')<<num<<std::endl;

---------------------------------xx的分割线-------------泛型方法----------------
C++的泛型编程：然参数类型成为一个变量。
template<typename T>
T myMax(const T& a, const T& b)
{
	if(a>b) return a;
	return b;
}

main()
{
	myMax<int>(3,4);
	myMax<float>(3.4f, 44.4f);
}

template<typename T> 定义了T是某个数据类型。

调用myMax的时候，用<int> 指定了T的类型。

指定某种数据类型的泛型函数。

template<>// 空类型定义里。
void showMax<string>(string a, string b)//使用显示类型。
{

    if(a.length()>b.length())
	
        cout<<"max:"<<a<<endl;
    else
        cout<<"max: "<<b<<endl;
}


必须放在泛型函数后面。
template<> 用空的。
函数名后面使用显示类型。 并在函数声明和定义中使用该类型


---------------------------------xx的分割线--------泛型类定义---------------------

---------------------------------xx的分割线--------迭代器---------------------
容器可以放普通变量的值，或地址，也可以放class的实例，或指针
vector<Person> persons; 则 迭代器进行指针运算得到一个实例。 *it 是一个person对象。
vector<int> ints; 则 迭代器进行指针运算得到一个int。 *it 是一个int value。

vector<Person*> persons; 则 迭代器进行指针运算得到一个指针。 *it 是一个person指针。 **it 表示一个对象。

如果vector保存的是对象。那么vector 在调用clear方法的时候，会自动析构。
如果是指针，那么需要自己维护内存，调用析构。

vector<Person*> ps;
for(auto it = ps.begin(); it!=ps.end(), it++)
{
	delete(*it);
	*it==NULL
}
//清空vector
ps.clear();

当ps执行erase，删除操作的时候，it会自动指向下一个元素！！！
auto it = ps.begin();
ps.erase(it);// 函数返回后，it自动指向下一个元素。


当vector中的元素保存的是某个类的实例时候，那么我们需要为该类维护复制函数，和赋值函数。
因为容器会赋值一份拷贝，进行维护。


容器的选择：
	一般使用vector，线性容器。
	如果对中间的元素进行大量的插入删除，那么使用list等基于节点的容器。
	当大部分的添加删除发生在头尾，那么使用deque
	

---------------------------v------xx的分割线-----------------------------
vector常用方法
v.empty()；	判断是否为空
v.clear()  清空
v.size();
v.push_back();
v.pop_back();
v.insert(pos); //
v.at(pos)
v1 = v2;
v1==v2




---------------------------------xx的分割线-----------------------------
常用算法
	for_each(it_begin, it_end, funname);
	funname一般声明为
	void funname(元素类型& tmp)   //元素类型为迭代器指向的类型。
	{
	}

	实例
	
	void fun(int& i)
	{
		i+= 3;
	}
	
	vector<int> ints(12,1);
    std::copy(ints.begin(), ints.end(), std::ostream_iterator<int>(cout, ":\n"));
    for_each(ints.begin()+2, ints.end(), fun);
    std::copy(ints.begin(), ints.end(), std::ostream_iterator<int>(cout,"xxx\n"));
	
	
---------------------------------xx的分割线-----------------------------
	find方法，查找特定的元素，并返回游标。若没找到返回哨兵位置。end();
    vector<int>::iterator it = ints.begin();
    do{
        it = find(it, ints.end(), 1);//int值为1的元素。
        if(it!=ints.end())
        {
            *it +=1000;
            it++;
        }
    }while(it!=ints.end());

---------------------------------xx的分割线-----------------------------
find的改进版，find_if
需要自定义谓词(返回值是bool的方法，参数是*it类型元素)。


---------------------------------xx的分割线-----------------------------
在使用merge 或者copy 来合并或拷贝容器元素的时候，注意目标的大小。
一般可以通过resize(v1.size()+v2.size()) 来重新定义容器大小。


---------------------------------xx的分割线-----------------------------
transform的使用page274

unique删除重复的元素。

---------------------------------xx的分割线-----------------------------
智能指针：
	need  memory.h
	std::auto_ptr<Person> p(new Person);
	使用智能指针进行托管。
	当智能指针销毁的时候，会让其指向的资源的被引用数减去1.当该数等于0的时候
	会自动释放掉该资源 ！！！


---------------------------------xx的分割线-----------------------------


---------------------------------xx的分割线-----------------------------


---------------------------------xx的分割线-----------------------------



---------------------------------xx的分割线-----------------------------


---------------------------------xx的分割线-----------------------------


---------------------------------xx的分割线-----------------------------



---------------------------------xx的分割线-----------------------------


---------------------------------xx的分割线-----------------------------


---------------------------------xx的分割线-----------------------------



---------------------------------xx的分割线-----------------------------


---------------------------------xx的分割线-----------------------------


---------------------------------xx的分割线-----------------------------



