把脉VC

-----------------------第二章----------xx的分割线-----------------------------

1:VS 添加boost 、 QT支持
工具->选项->项目和解决方案->VC++目录（左侧）
	选择 包含文件， 加入第三方库的头文件 eg:d:\boost-1.34.1
	选择 源文件		加入第三方库的头文件地址	eg: d:\boost-1.34.1\src
	选择 库文件		加入第三方库		eg: c:\program files\microsoft directX\lib\x86
	
~~~~~~~~~~~~~~~~~~~~~~~~~~~~~~~~~~~~~~~~~~~~~~~~~~~~~~~~~~~~~~~~~~~~~~~~~~~~~~
2:	vs 格式化代码：	编辑->高级  能找到格式化工具。快捷键 ctrl+k, ctrl+f。
	需要两次快捷键。
	运行程序 		ctrl+f5
	
-----------------------第三章----------xx的分割线-----------------------------
宽字符型 wchar_t,两个字节，用于表示英文以外的字符(也可以表示英文字符)
wchar c = L'c';

注意L 表示后面的字符时宽字符。L必须大写，必须放在字符前面！

~~~~~~~~~~~~~~~~~~~~~~~~~~~~~~~~~~~~~~~~~~~~~~~~~~~~~~~~~~~~~~~~~~~~~~~~~~~~~~
vc 提供长度固定的整数类型。8,16,32,64 分别占1,2,4,8个字节
[code]
_int8 nSmall;
_int16 nMedium;
_int32 nLarge;
_int64 nHuge;





~~~~~~~~~~~~~~~~~~~~~~~~~~~~~~~~~~~~~~~~~~~~~~~~~~~~~~~~~~~~~~~~~~~~~~~~~~~~~~




~~~~~~~~~~~~~~~~~~~~~~~~~~~~~~~~~~~~~~~~~~~~~~~~~~~~~~~~~~~~~~~~~~~~~~~~~~~~~~




~~~~~~~~~~~~~~~~~~~~~~~~~~~~~~~~~~~~~~~~~~~~~~~~~~~~~~~~~~~~~~~~~~~~~~~~~~~~~~
